<?xml version="1.0" encoding="UTF-8" standalone="no"?>
<svg
   xmlns:dc="http://purl.org/dc/elements/1.1/"
   xmlns:cc="http://creativecommons.org/ns#"
   xmlns:rdf="http://www.w3.org/1999/02/22-rdf-syntax-ns#"
   xmlns:svg="http://www.w3.org/2000/svg"
   xmlns="http://www.w3.org/2000/svg"
   xmlns:sodipodi="http://sodipodi.sourceforge.net/DTD/sodipodi-0.dtd"
   xmlns:inkscape="http://www.inkscape.org/namespaces/inkscape"
   version="1.1"
   id="svg2"
   width="30.236221"
   height="37.79528"
   viewBox="0 0 30.236221 37.795281"
   sodipodi:docname="Time.svg"
   inkscape:version="1.0.2 (e86c870879, 2021-01-15)">
  <metadata
     id="metadata8">
    <rdf:RDF>
      <cc:Work
         rdf:about="">
        <dc:format>image/svg+xml</dc:format>
        <dc:type
           rdf:resource="http://purl.org/dc/dcmitype/StillImage" />
        <dc:title />
      </cc:Work>
    </rdf:RDF>
  </metadata>
  <defs
     id="defs6" />
  <sodipodi:namedview
     pagecolor="#ffffff"
     bordercolor="#666666"
     borderopacity="1"
     objecttolerance="10"
     gridtolerance="10"
     guidetolerance="10"
     inkscape:pageopacity="0"
     inkscape:pageshadow="2"
     inkscape:window-width="1920"
     inkscape:window-height="997"
     id="namedview4"
     showgrid="false"
     inkscape:zoom="16.000001"
     inkscape:cx="11.68788"
     inkscape:cy="17.03097"
     inkscape:window-x="0"
     inkscape:window-y="28"
     inkscape:window-maximized="1"
     inkscape:current-layer="g923"
     inkscape:document-rotation="0" />
  <g
     inkscape:groupmode="layer"
     inkscape:label="Image"
     id="g10"
     transform="translate(-2.1107587,-1.267079)">
    <g
       id="g923"
       transform="matrix(1.0017078,0,0,1.0045202,-0.00289936,-0.00645188)">
      <circle
         style="fill:none;stroke:#000000;stroke-width:0;stroke-linecap:round;stroke-miterlimit:4;stroke-dasharray:none;stroke-opacity:1"
         id="path837"
         cx="18.462317"
         cy="23.404543"
         r="9.5840425" />
      <path
         style="fill:none;stroke:#000000;stroke-width:1px;stroke-linecap:round;stroke-linejoin:miter;stroke-opacity:1"
         d="m 15.013355,17.677036 3.178711,7.030472 5.010262,-3.357452"
         id="path882" />
      <path
         style="fill:#ffff00;stroke:#000000;stroke-width:0.996987;stroke-linecap:round;stroke-linejoin:round;stroke-miterlimit:4;stroke-dasharray:none;stroke-opacity:1;paint-order:normal"
         d="M 16.019173,38.378828 C 14.331679,38.182991 13.347577,37.958789 12.063976,37.477741 6.1347289,35.255672 2.2890157,29.391229 2.6294689,23.09078 2.714852,21.510675 2.9927033,20.15285 3.520346,18.737175 4.6100528,15.81347 6.5291744,13.399615 9.1685792,11.632876 9.7594995,11.237331 9.8099074,11.181135 9.8077148,10.920354 9.8061723,10.737081 9.7247529,10.572758 9.0489727,9.3890786 8.632614,8.6597943 8.2429848,8.0171422 8.1831306,7.9609625 8.0780323,7.8623165 8.0442234,7.8583837 7.1960767,7.8461413 6.4413117,7.8352472 6.2712921,7.8196525 5.9866824,7.7352111 5.2836656,7.5266315 4.8067089,7.1720319 4.5565387,6.6719524 4.3616956,6.2824693 4.3220997,5.9633929 4.4139863,5.5232178 4.7552287,3.8885228 6.6461573,2.364652 8.9475923,1.8696535 9.4770084,1.7557853 10.612878,1.7562489 11.046968,1.8705104 c 0.780649,0.2054831 1.314677,0.5862399 1.58078,1.1270797 0.134214,0.2727835 0.142801,0.3187853 0.141006,0.7553376 -0.0017,0.4135123 -0.01694,0.5024425 -0.137998,0.8050506 -0.207429,0.5185232 -0.568255,1.0230385 -1.084355,1.5161737 -0.498687,0.4764957 -0.561834,0.5594065 -0.564163,0.74073 -0.0013,0.1009272 0.922558,2.2831613 1.193699,2.8196311 0.151026,0.2988173 0.38804,0.3281433 1.068929,0.1322612 1.256094,-0.3613599 2.169856,-0.491758 3.646022,-0.5203045 1.461185,-0.028257 2.418486,0.062944 3.635733,0.3463715 4.241051,0.9874987 7.864874,3.8735547 9.789233,7.7962617 0.80195,1.634735 1.278342,3.351666 1.440997,5.193388 0.07503,0.849482 0.02963,2.496853 -0.09074,3.292828 -0.478865,3.166791 -1.84212,5.919016 -4.036557,8.149252 -2.328177,2.366158 -5.175818,3.799077 -8.494473,4.274377 -0.462847,0.06629 -2.731811,0.124456 -3.115915,0.07988 z m 3.999863,-4.986362 c 3.446986,-0.551708 6.370235,-2.822116 7.728395,-6.002434 0.353177,-0.827014 0.573834,-1.610339 0.719271,-2.553391 0.09564,-0.620147 0.108959,-2.121209 0.02412,-2.71824 -0.366315,-2.57787 -1.60284,-4.823927 -3.565877,-6.477158 -0.809509,-0.681754 -2.11661,-1.428256 -3.093817,-1.766922 -1.128494,-0.391096 -2.094771,-0.549036 -3.359001,-0.549036 -1.002703,0 -1.554544,0.06175 -2.405206,0.269129 -4.125524,1.005751 -7.1880057,4.5027 -7.6472876,8.73219 -0.05941,0.547107 -0.059865,1.593358 -9.326e-4,2.147138 0.2769607,2.602541 1.5641992,5.01112 3.5756672,6.690506 1.480401,1.235994 3.380716,2.05149 5.328628,2.286712 0.514571,0.06214 2.166245,0.0263 2.696039,-0.0585 z"
         id="path898" />
    </g>
  </g>
</svg>
